Circuit: * C:\Users\Ankan Mukherjee\OneDrive - Indian Institute of Technology Bombay\Ankan\Studies\IITB\SEM IV\PH 233\Lab 4\A\Circuit_A_Actuator.asc

V: Missing value, assumed 0V @ DC
Direct Newton iteration for .op point succeeded.
Direct Newton iteration for .op point succeeded.

Date: Wed Apr 07 09:23:52 2021
Total elapsed time: 0.136 seconds.

tnom = 27
temp = 27
method = trap
totiter = 232
traniter = 0
tranpoints = 0
accept = 0
rejected = 0
matrix size = 23
fillins = 8
solver = Normal
Matrix Compiler1: 2.05 KB object code size  0.5/0.2/[0.2]
Matrix Compiler2: 2.03 KB object code size  0.2/0.3/[0.2]

