Version 4
SHEET 1 1380 680
WIRE -624 -144 -656 -144
WIRE -512 -144 -544 -144
WIRE -448 -144 -512 -144
WIRE -336 -144 -368 -144
WIRE -272 -144 -336 -144
WIRE -160 -144 -192 -144
WIRE -96 -144 -160 -144
WIRE 16 -144 -16 -144
WIRE 160 -144 16 -144
WIRE -656 -128 -656 -144
WIRE -512 -112 -512 -144
WIRE -336 -112 -336 -144
WIRE -160 -112 -160 -144
WIRE 16 -112 16 -144
WIRE -512 0 -512 -32
WIRE -336 0 -336 -32
WIRE -160 0 -160 -32
WIRE 16 0 16 -32
WIRE -512 96 -512 80
WIRE -336 96 -336 80
WIRE -336 96 -512 96
WIRE -160 96 -160 80
WIRE -160 96 -336 96
WIRE 16 96 16 80
WIRE 16 96 -160 96
WIRE 160 96 16 96
WIRE -656 112 -656 -48
WIRE -512 112 -512 96
WIRE -336 112 -336 96
WIRE -160 112 -160 96
WIRE 16 112 16 96
FLAG -656 112 0
FLAG -512 112 0
FLAG -336 112 0
FLAG -160 112 0
FLAG 16 112 0
SYMBOL voltage -512 -16 R0
WINDOW 3 24 96 Invisible 2
SYMATTR InstName Bit0
SYMBOL res -528 -160 R90
WINDOW 0 0 56 Invisible 2
WINDOW 3 32 56 VTop 2
SYMATTR InstName R1
SYMBOL res -640 -32 R180
WINDOW 0 36 76 Invisible 2
WINDOW 3 36 40 Left 2
SYMATTR InstName R2
SYMBOL res -528 -128 R0
WINDOW 0 36 40 Invisible 2
SYMATTR InstName R3
SYMATTR Value 2R
SYMBOL voltage -336 -16 R0
WINDOW 3 24 96 Invisible 2
SYMATTR InstName Bit1
SYMBOL res -352 -160 R90
WINDOW 0 0 56 Invisible 2
WINDOW 3 32 56 VTop 2
SYMATTR InstName R4
SYMBOL res -352 -128 R0
WINDOW 0 36 40 Invisible 2
SYMATTR InstName R5
SYMATTR Value 2R
SYMBOL voltage -160 -16 R0
WINDOW 3 24 96 Invisible 2
SYMATTR InstName Bit2
SYMBOL res -176 -160 R90
WINDOW 0 0 56 Invisible 2
WINDOW 3 32 56 VTop 2
SYMATTR InstName R6
SYMBOL res -176 -128 R0
WINDOW 0 36 40 Invisible 2
SYMATTR InstName R7
SYMATTR Value 2R
SYMBOL voltage 16 -16 R0
WINDOW 3 24 96 Invisible 2
SYMATTR InstName Bit3
SYMBOL res 0 -160 R90
WINDOW 0 0 56 Invisible 2
WINDOW 3 32 56 VTop 2
SYMATTR InstName R8
SYMBOL res 0 -128 R0
WINDOW 0 36 40 Invisible 2
SYMATTR InstName R9
SYMATTR Value 2R
TEXT 128 -32 Left 2 ;V_OUT
TEXT -520 -160 Left 2 ;A
TEXT -672 176 Left 2 ;The Original Circuit\n \nThe Bit0 Voltage takes the value V_ref \nwhen ON and 0 when OFF.
TEXT -344 -160 Left 2 ;B
TEXT -168 -160 Left 2 ;C
TEXT 8 -160 Left 2 ;D
LINE Normal 160 -48 160 -144 2
LINE Normal 160 -16 160 96 2
